id;nombre;apellidos;email
0;juan;gil bedoya;jg@gmail.com
1;jose;paez paez;jp@gmail.com
2;silomon;garcia torres;sg@gmail.com
3;tolomeo;castillo zua;tc@gmail.com
4;paula;rico camello;pr@gmail.com
5;alejandra;baez buya;ab@gmail.com
6;uriel;urbina uquino;uu@gmail.com
7;tatiana;ruiz roa;tr@gmail.com
8;alison;pacheco rios;ap@gmail.com
